{
    "generalized_tables": {
        "waterareas_gen1": {
            "source": "zbiorniki",
            "sql_filter": "ST_Area(geometry)>50000.000000",
            "tolerance": 50.0
        },
        "waterareas_gen0": {
            "source": "waterareas_gen1",
            "sql_filter": "ST_Area(geometry)>500000.000000",
            "tolerance": 200.0
        },
        "roads_gen0": {
            "source": "roads_gen1",
            "sql_filter": null,
            "tolerance": 200.0
        },
        "roads_gen1": {
            "source": "roads",
            "sql_filter": "type IN ('motorway', 'motorway_link', 'trunk', 'trunk_link', 'primary', 'primary_link', 'secondary', 'secondary_link', 'tertiary', 'tertiary_link') OR class IN('railway')",
            "tolerance": 50.0
        },
        "waterways_gen0": {
            "source": "waterways_gen1",
            "sql_filter": null,
            "tolerance": 200
        },
        "waterways_gen1": {
            "source": "cieki",
            "sql_filter": null,
            "tolerance": 50.0
        },
        "landusages_gen1": {
            "source": "landusages",
            "sql_filter": "ST_Area(geometry)>50000.000000",
            "tolerance": 50.0
        },
        "landusages_gen0": {
            "source": "landusages_gen1",
            "sql_filter": "ST_Area(geometry)>500000.000000",
            "tolerance": 200.0
        }
    },	
    "tables": {
        "landusages": {
            "fields": [
                {
                    "type": "id",
                    "name": "osm_id",
                    "key": null
                },
                {
                    "type": "geometry",
                    "name": "geometry",
                    "key": null
                },
                {
                    "type": "string",
                    "name": "name",
                    "key": "name"
                },
                {
                    "type": "string",
                    "name": "ref",
                    "key": "ref"
                },                
                {
                    "type": "mapping_value",
                    "name": "type",
                    "key": null
                },
                {
                    "type": "string",
                    "name": "wood",
                    "key": "wood"
                },                  
                {
                    "args": {
                        "ranks": [
                            "pedestrian",
                            "footway",
                            "playground",
                            "park",
                            "cemetery",
                            "military",
                            "farmyard",
                            "farm",
                            "farmland",
                            "meadow",
                            "grass",
                            "wetland",
                            "village_green",
                            "recreation_ground",
                            "garden",
                            "sports_centre",
                            "pitch",
                            "common",
                            "allotments",
                            "golf_course",
                            "university",
                            "school",
                            "college",
                            "library",
                            "baracks",
                            "fuel",
                            "parking",
                            "cinema",
                            "theatre",
                            "place_of_worship",
                            "hospital",
                            "scrub",
                            "orchard",
                            "vineyard",
                            "zoo",
                            "quarry",
                            "residential",
                            "retail",
                            "commercial",
                            "industrial",
                            "railway",
                            "heath",
                            "island",
                            "land"
                        ]
                    },
                    "type": "zorder",
                    "name": "z_order",
                    "key": "z_order"
                }
            ],
            "type": "polygon",
            "mapping": {
                "amenity": [
                    "university",
                    "school",
                    "college",
                    "library",
                    "fuel",
                    "parking",
                    "cinema",
                    "theatre",
                    "place_of_worship",
                    "hospital"
                ],
                "leisure": [
                    "park",
                    "garden",
                    "playground",
                    "golf_course",
                    "sports_centre",
                    "pitch",
                    "stadium",
                    "common"
                ],
                "tourism": [
                    "zoo"
                ],
                "natural": [
                    "wood",
                    "land",
                    "scrub",
                    "wetland",
                    "heath"
                ],
                "man_made": [
                    "pier",
                    "wastewater_plant",
                    "water_works",
                    "watermill",
                    "waterwell"
                ],
                "aeroway": [
                    "runway",
                    "taxiway"
                ],
                "place": [
                    "island"
                ],
                "military": [
                    "barracks"
                ],
                "landuse": [
                    "park",
                    "forest",
                    "residential",
                    "retail",
                    "military",
                    "commercial",
                    "industrial",
                    "railway",
                    "cemetery",
                    "grass",
                    "farmyard",
                    "farm",
                    "farmland",
                    "orchard",
                    "vineyard",
                    "meadow",
                    "village_green",
                    "recreation_ground",
                    "allotments",
                    "quarry"
                ],
                "highway": [
                    "pedestrian",
                    "footway"
                ]
            }
        },
        "budynki": {
            "fields": [
                {
                    "type": "id",
                    "name": "osm_id",
                    "key": null
                },
                {
                    "type": "geometry",
                    "name": "geometry",
                    "key": null
                },
                {
                    "type": "string",
                    "name": "name",
                    "key": "name"
                },
                {
                    "type": "mapping_value",
                    "name": "type",
                    "key": null
                }
            ],
            "type": "polygon",
            "mapping": {
                "building": [
                    "__any__"
                ]
            }
        },
        "places": {
            "fields": [
                {
                    "type": "id",
                    "name": "osm_id",
                    "key": null
                },
                {
                    "type": "geometry",
                    "name": "geometry",
                    "key": null
                },
                {
                    "type": "string",
                    "name": "name",
                    "key": "name"
                },
                {
                    "type": "mapping_value",
                    "name": "type",
                    "key": null
                },
                {
                    "args": {
                        "ranks": [
                            "country",
                            "state",
                            "region",
                            "county",
                            "city",
                            "town",
                            "village",
                            "hamlet",
                            "suburb",
                            "isolated_dwelling",
                            "locality"
                        ]
                    },
                    "type": "zorder",
                    "name": "z_order",
                    "key": "z_order"
                },
                {
                    "type": "integer",
                    "name": "population",
                    "key": "population"
                }
            ],
            "type": "point",
            "mapping": {
                "place": [
                    "country",
                    "state",
                    "region",
                    "county",
                    "city",
                    "town",
                    "village",
                    "hamlet",
                    "suburb",
                    "isolated_dwelling",
                    "locality"
                ]
            }
        },
        "power": {
            "fields": [
                {
                    "type": "id",
                    "name": "osm_id",
                    "key": null
                },
                {
                    "type": "geometry",
                    "name": "geometry",
                    "key": null
                },
                {
                    "type": "string",
                    "name": "name",
                    "key": "name"
                },
                {
                    "type": "string",
                    "name": "voltage",
                    "key": "voltage"
                },                
                {
                    "type": "mapping_value",
                    "name": "type",
                    "key": null
                }
            ],
            "type": "linestring",
            "mapping": {
                "power": [
                    "line",
                    "minor_line"
                ]
            }
        },        
        "transport_areas": {
            "fields": [
                {
                    "type": "id",
                    "name": "osm_id",
                    "key": null
                },
                {
                    "type": "geometry",
                    "name": "geometry",
                    "key": null
                },
                {
                    "type": "string",
                    "name": "name",
                    "key": "name"
                },
                {
                    "type": "mapping_value",
                    "name": "type",
                    "key": null
                }
            ],
            "type": "polygon",
            "mapping": {
                "public_transport": [
                    "station",
                    "platform"
                ],
                "railway": [
                    "station",
                    "switch_box"
                ],
                "aeroway": [
                    "aerodrome",
                    "terminal",
                    "helipad",
                    "apron"
                ]
            }
        },
        "admin": {
            "fields": [
                {
                    "type": "id",
                    "name": "osm_id",
                    "key": null
                },
                {
                    "type": "geometry",
                    "name": "geometry",
                    "key": null
                },
                {
                    "type": "string",
                    "name": "name",
                    "key": "name"
                },
                {
                    "type": "string",
                    "name": "teryt:terc",
                    "key": "teryt:terc"
                },                
                {
                    "type": "mapping_value",
                    "name": "type",
                    "key": null
                },
                {
                    "type": "integer",
                    "name": "admin_level",
                    "key": "admin_level"
                }
            ],
            "type": "polygon",
            "mapping": {
                "boundary": [
                    "administrative",
                    "national_park",
                    "protected_area"
                ],
                "leisure": [
                    "nature_reserve"
                ]                
            }
        },
        "aeroways": {
            "fields": [
                {
                    "type": "id",
                    "name": "osm_id",
                    "key": null
                },
                {
                    "type": "geometry",
                    "name": "geometry",
                    "key": null
                },
                {
                    "type": "string",
                    "name": "name",
                    "key": "name"
                },
                {
                    "type": "mapping_value",
                    "name": "type",
                    "key": null
                }
            ],
            "type": "linestring",
            "mapping": {
                "aeroway": [
                    "runway",
                    "taxiway"
                ]
            }
        },       
        "amenities": {
            "fields": [
                {
                    "type": "id",
                    "name": "osm_id",
                    "key": null
                },
                {
                    "type": "geometry",
                    "name": "geometry",
                    "key": null
                },
                {
                    "type": "string",
                    "name": "name",
                    "key": "name"
                },
                {
                    "type": "string",
                    "name": "ele",
                    "key": "ele"
                },                
                {
                    "type": "mapping_value",
                    "name": "type",
                    "key": null
                }
            ],
            "type": "point",
            "mapping": {
                "amenity": [
                    "university",
                    "school",
                    "library",
                    "fuel",
                    "museum",
                    "townhall"
                ],
               "historic": [
                    "__any__"
                ],
               "natural": [
                    "peak"
                ],  
                "tourism": [
                    "__any__"
                ],
                "man_made": [
                    "__any__"
                ]                  
            }
        },
        "emergency": {
            "fields": [
                {
                    "type": "id",
                    "name": "osm_id",
                    "key": null
                },
                {
                    "type": "geometry",
                    "name": "geometry",
                    "key": null
                },
                {
                    "type": "string",
                    "name": "name",
                    "key": "name"
                },
                {
                    "type": "string",
                    "name": "ref",
                    "key": "ref"
                },
                {
                    "type": "string",
                    "name": "fire_hydrant:type",
                    "key": "fire_hydrant:type"
                },
                {
                    "type": "string",
                    "name": "fire_hydrant:diameter",
                    "key": "fire_hydrant:diameter"
                },                                                 
                {
                    "type": "mapping_value",
                    "name": "type",
                    "key": null
                }
            ],
            "type": "point",
            "mapping": {
                "amenity": [
                    "hospital",
                    "fire_station",
                    "police"
                ],
                "emergency": [
					"fire_hydrant",
					"suction_point",
					"landing_site"
				]
            }
        },
        "barrierways": {
            "fields": [
                {
                    "type": "id",
                    "name": "osm_id",
                    "key": null
                },
                {
                    "type": "geometry",
                    "name": "geometry",
                    "key": null
                },
                {
                    "type": "string",
                    "name": "name",
                    "key": "name"
                },
                {
                    "type": "mapping_value",
                    "name": "type",
                    "key": null
                }
            ],
            "type": "linestring",
            "mapping": {
                "barrier": [
                    "city_wall",
                    "fence",
                    "hedge",
                    "retaining_wall",
                    "wall",
                    "bollard",
                    "gate",
                    "spikes",
                    "lift_gate",
                    "kissing_gate",
                    "embankment",
                    "yes",
                    "wire_fence"
                ]
            }
        },                
        "roads": {
            "fields": [
                {
                    "type": "id",
                    "name": "osm_id",
                    "key": null
                },
                {
                    "type": "geometry",
                    "name": "geometry",
                    "key": null
                },
                {
                    "type": "mapping_value",
                    "name": "type",
                    "key": null
                },
                {
                    "type": "string",
                    "name": "name",
                    "key": "name"
                },
                {
                    "type": "boolint",
                    "name": "tunnel",
                    "key": "tunnel"
                },
                {
                    "type": "boolint",
                    "name": "bridge",
                    "key": "bridge"
                },
                {
                    "type": "direction",
                    "name": "oneway",
                    "key": "oneway"
                },
                {
                    "type": "string",
                    "name": "ref",
                    "key": "ref"
                },
                {
                    "type": "wayzorder",
                    "name": "z_order",
                    "key": "layer"
                },
                {
                    "type": "string",
                    "name": "access",
                    "key": "access"
                },
                {
                    "type": "string",
                    "name": "service",
                    "key": "service"
                },
                {
                    "type": "string",
                    "name": "usage",
                    "key": "usage"
                },
                {
                    "type": "string",
                    "name": "construction",
                    "key": "construction"
                },                                
                {
                    "type": "string",
                    "name": "maxspeed",
                    "key": "maxspeed"
                },                
                {
                    "type": "mapping_key",
                    "name": "class",
                    "key": null
                }
            ],
            "type": "linestring",
            "filters": {
                "exclude_tags": [
                    ["area", "yes"]
                ]
            },
            "mappings": {
                "koleje": {
                    "mapping": {
                        "railway": [
                            "rail",
                            "tram",
                            "light_rail",
                            "subway",
                            "narrow_gauge",
                            "preserved",
                            "funicular",
                            "monorail",
                            "construction",
                            "proposed",
                            "disused"
                        ]
                    }
                },
                "drogi": {
                    "mapping": {
                        "man_made": [
                            "pier",
                            "groyne"
                        ],
                        "highway": [
                            "motorway",
                            "motorway_link",
                            "trunk",
                            "trunk_link",
                            "primary",
                            "primary_link",
                            "secondary",
                            "secondary_link",
                            "tertiary",
                            "tertiary_link",
                            "road",
                            "path",
                            "track",
                            "service",
                            "footway",
                            "bridleway",
                            "cycleway",
                            "steps",
                            "pedestrian",
                            "living_street",
                            "unclassified",
                            "residential",
                            "raceway"
                        ]
                    }
                }
            }
        },
        "transport_points": {
            "fields": [
                {
                    "type": "id",
                    "name": "osm_id",
                    "key": null
                },
                {
                    "type": "geometry",
                    "name": "geometry",
                    "key": null
                },
                {
                    "type": "string",
                    "name": "name",
                    "key": "name"
                },
                {
                    "type": "string",
                    "name": "distance",
                    "key": "distance"
                },                
                {
                    "type": "mapping_value",
                    "name": "type",
                    "key": null
                },
                {
                    "type": "mapping_key",
                    "name": "class",
                    "key": null
                },
                {
                    "type": "string",
                    "name": "ref",
                    "key": "ref"
                }
            ],
            "type": "point",
            "mappings": {            
            "drogi": {
            "mapping": {
                "highway": [
                    "motorway_junction",
                    "turning_circle",
                    "milestone",
                    "bus_stop"
                ]
            }},
            "koleje": {
            "mapping": {
                "railway": [
                    "station",
                    "halt",
                    "tram_stop",
                    "crossing",
                    "level_crossing",
                    "milestone",
                    "subway_entrance"
                ],
               "public_transport": [
                    "station",
                    "stop_position",
                    "halt"
                ],               
                "aeroway": [
                    "aerodrome",
                    "terminal",
                    "helipad"]
                   }
			    }
           }
        },
        "cieki": {
            "fields": [
                {
                    "type": "id",
                    "name": "osm_id",
                    "key": null
                },
                {
                    "type": "geometry",
                    "name": "geometry",
                    "key": null
                },
                {
                    "type": "string",
                    "name": "name",
                    "key": "name"
                },
                {
                    "type": "mapping_value",
                    "name": "type",
                    "key": null
                }
            ],
            "type": "linestring",
            "mapping": {
                "waterway": [
                    "stream",
                    "river",
                    "canal",
                    "drain",
                    "ditch"
                ],
                "barrier": [
                    "ditch"
                ]
            }
        },
        "zbiorniki": {
            "fields": [
                {
                    "type": "id",
                    "name": "osm_id",
                    "key": null
                },
                {
                    "type": "geometry",
                    "name": "geometry",
                    "key": null
                },
                {
                    "type": "string",
                    "name": "name",
                    "key": "name"
                },
                {
                    "type": "mapping_value",
                    "name": "type",
                    "key": null
                },
                {
                    "type": "pseudoarea",
                    "name": "area",
                    "key": null
                }
            ],
            "type": "polygon",
            "mapping": {
                "waterway": [
                    "riverbank"
                ],
                "landuse": [
                    "basin",
                    "reservoir"
                ],
                "natural": [
                    "water"
                ],
                "amenity": [
                    "swimming_pool"
                ],
                "leisure": [
                    "swimming_pool"
                ]
            }
        }        
    }
}
